%YAML 1.1
%TAG !u! tag:unity3d.com,2011:
--- !u!74 &7400000
AnimationClip:
  m_ObjectHideFlags: 0
  m_CorrespondingSourceObject: {fileID: 0}
  m_PrefabInternal: {fileID: 0}
  m_Name: slasher_good_walk
  serializedVersion: 6
  m_Legacy: 0
  m_Compressed: 0
  m_UseHighQualityCurve: 1
  m_RotationCurves: []
  m_CompressedRotationCurves: []
  m_EulerCurves: []
  m_PositionCurves: []
  m_ScaleCurves: []
  m_FloatCurves: []
  m_PPtrCurves:
  - curve:
    - time: 0
      value: {fileID: 21300000, guid: a731243f767228f45bb9e2fd879d3db5, type: 3}
    - time: 0.083333336
      value: {fileID: 21300000, guid: 9f9baf1980ef68546b05556486295885, type: 3}
    - time: 0.16666667
      value: {fileID: 21300000, guid: 689073fdb480973408e6f031ca8bfb3b, type: 3}
    - time: 0.25
      value: {fileID: 21300000, guid: 125216a455e205e4f99357dfc8072143, type: 3}
    - time: 0.33333334
      value: {fileID: 21300000, guid: f3920907b1d2b6b489d10fe615705ad9, type: 3}
    - time: 0.41666666
      value: {fileID: 21300000, guid: c6587865c7bc77d469835799571c6a44, type: 3}
    - time: 0.5
      value: {fileID: 21300000, guid: 42fc0706d55858347b7a4a1ec7e68d6d, type: 3}
    - time: 0.5833333
      value: {fileID: 21300000, guid: 9a57c912089bfc04db544aede403b133, type: 3}
    - time: 0.6666667
      value: {fileID: 21300000, guid: 2697ee8ec75bcbb4da77693d48869947, type: 3}
    - time: 0.75
      value: {fileID: 21300000, guid: 1d9a4684e9420b54698ec117bd351fb2, type: 3}
    - time: 0.8333333
      value: {fileID: 21300000, guid: 26f90bdfae7b802489805aa4dd307233, type: 3}
    - time: 0.9166667
      value: {fileID: 21300000, guid: 79353d2a7b76af241b458af1c7bf2b0f, type: 3}
    attribute: m_Sprite
    path: 
    classID: 212
    script: {fileID: 0}
  m_SampleRate: 12
  m_WrapMode: 0
  m_Bounds:
    m_Center: {x: 0, y: 0, z: 0}
    m_Extent: {x: 0, y: 0, z: 0}
  m_ClipBindingConstant:
    genericBindings:
    - serializedVersion: 2
      path: 0
      attribute: 0
      script: {fileID: 0}
      typeID: 212
      customType: 23
      isPPtrCurve: 1
    pptrCurveMapping:
    - {fileID: 21300000, guid: a731243f767228f45bb9e2fd879d3db5, type: 3}
    - {fileID: 21300000, guid: 9f9baf1980ef68546b05556486295885, type: 3}
    - {fileID: 21300000, guid: 689073fdb480973408e6f031ca8bfb3b, type: 3}
    - {fileID: 21300000, guid: 125216a455e205e4f99357dfc8072143, type: 3}
    - {fileID: 21300000, guid: f3920907b1d2b6b489d10fe615705ad9, type: 3}
    - {fileID: 21300000, guid: c6587865c7bc77d469835799571c6a44, type: 3}
    - {fileID: 21300000, guid: 42fc0706d55858347b7a4a1ec7e68d6d, type: 3}
    - {fileID: 21300000, guid: 9a57c912089bfc04db544aede403b133, type: 3}
    - {fileID: 21300000, guid: 2697ee8ec75bcbb4da77693d48869947, type: 3}
    - {fileID: 21300000, guid: 1d9a4684e9420b54698ec117bd351fb2, type: 3}
    - {fileID: 21300000, guid: 26f90bdfae7b802489805aa4dd307233, type: 3}
    - {fileID: 21300000, guid: 79353d2a7b76af241b458af1c7bf2b0f, type: 3}
  m_AnimationClipSettings:
    serializedVersion: 2
    m_AdditiveReferencePoseClip: {fileID: 0}
    m_AdditiveReferencePoseTime: 0
    m_StartTime: 0
    m_StopTime: 1
    m_OrientationOffsetY: 0
    m_Level: 0
    m_CycleOffset: 0
    m_HasAdditiveReferencePose: 0
    m_LoopTime: 1
    m_LoopBlend: 0
    m_LoopBlendOrientation: 0
    m_LoopBlendPositionY: 0
    m_LoopBlendPositionXZ: 0
    m_KeepOriginalOrientation: 0
    m_KeepOriginalPositionY: 1
    m_KeepOriginalPositionXZ: 0
    m_HeightFromFeet: 0
    m_Mirror: 0
  m_EditorCurves: []
  m_EulerEditorCurves: []
  m_HasGenericRootTransform: 0
  m_HasMotionFloatCurves: 0
  m_GenerateMotionCurves: 0
  m_Events: []
