%YAML 1.1
%TAG !u! tag:unity3d.com,2011:
--- !u!74 &7400000
AnimationClip:
  m_ObjectHideFlags: 0
  m_CorrespondingSourceObject: {fileID: 0}
  m_PrefabInternal: {fileID: 0}
  m_Name: Ghost_idle
  serializedVersion: 6
  m_Legacy: 0
  m_Compressed: 0
  m_UseHighQualityCurve: 1
  m_RotationCurves: []
  m_CompressedRotationCurves: []
  m_EulerCurves: []
  m_PositionCurves: []
  m_ScaleCurves: []
  m_FloatCurves: []
  m_PPtrCurves:
  - curve:
    - time: 0
      value: {fileID: 21300000, guid: d9c25ef447781a0439477af9effaf66a, type: 3}
    - time: 0.083333336
      value: {fileID: 21300000, guid: d9c25ef447781a0439477af9effaf66a, type: 3}
    - time: 0.16666667
      value: {fileID: 21300000, guid: de032e67d6653bc4cb18e11a02cccd48, type: 3}
    - time: 0.25
      value: {fileID: 21300000, guid: 84605ef4a58f1d149b06d5f1158f806f, type: 3}
    - time: 0.33333334
      value: {fileID: 21300000, guid: 457dbc004398ba141843d4b6c642c12a, type: 3}
    - time: 0.41666666
      value: {fileID: 21300000, guid: ee458386806f5b24e91f1d6707bb2b1b, type: 3}
    - time: 0.5
      value: {fileID: 21300000, guid: 98583169a8335dd418a1f931a182c913, type: 3}
    - time: 0.5833333
      value: {fileID: 21300000, guid: 96cc656384211054daa2ddc5150ea93f, type: 3}
    - time: 0.6666667
      value: {fileID: 21300000, guid: 63888ee20d4d41e409b373f07e24d14f, type: 3}
    - time: 0.75
      value: {fileID: 21300000, guid: abbb51f81bb3a9e47befd20c7ced44b2, type: 3}
    - time: 0.8333333
      value: {fileID: 21300000, guid: 54fb6cc6b4f2b144ead64c6191f1b631, type: 3}
    - time: 0.9166667
      value: {fileID: 21300000, guid: d005d96a562c6b64f9fb00612d29d951, type: 3}
    - time: 1
      value: {fileID: 21300000, guid: dec00806d4091044e93d602f682d1df1, type: 3}
    attribute: m_Sprite
    path: 
    classID: 212
    script: {fileID: 0}
  m_SampleRate: 12
  m_WrapMode: 0
  m_Bounds:
    m_Center: {x: 0, y: 0, z: 0}
    m_Extent: {x: 0, y: 0, z: 0}
  m_ClipBindingConstant:
    genericBindings:
    - serializedVersion: 2
      path: 0
      attribute: 0
      script: {fileID: 0}
      typeID: 212
      customType: 23
      isPPtrCurve: 1
    pptrCurveMapping:
    - {fileID: 21300000, guid: d9c25ef447781a0439477af9effaf66a, type: 3}
    - {fileID: 21300000, guid: d9c25ef447781a0439477af9effaf66a, type: 3}
    - {fileID: 21300000, guid: de032e67d6653bc4cb18e11a02cccd48, type: 3}
    - {fileID: 21300000, guid: 84605ef4a58f1d149b06d5f1158f806f, type: 3}
    - {fileID: 21300000, guid: 457dbc004398ba141843d4b6c642c12a, type: 3}
    - {fileID: 21300000, guid: ee458386806f5b24e91f1d6707bb2b1b, type: 3}
    - {fileID: 21300000, guid: 98583169a8335dd418a1f931a182c913, type: 3}
    - {fileID: 21300000, guid: 96cc656384211054daa2ddc5150ea93f, type: 3}
    - {fileID: 21300000, guid: 63888ee20d4d41e409b373f07e24d14f, type: 3}
    - {fileID: 21300000, guid: abbb51f81bb3a9e47befd20c7ced44b2, type: 3}
    - {fileID: 21300000, guid: 54fb6cc6b4f2b144ead64c6191f1b631, type: 3}
    - {fileID: 21300000, guid: d005d96a562c6b64f9fb00612d29d951, type: 3}
    - {fileID: 21300000, guid: dec00806d4091044e93d602f682d1df1, type: 3}
  m_AnimationClipSettings:
    serializedVersion: 2
    m_AdditiveReferencePoseClip: {fileID: 0}
    m_AdditiveReferencePoseTime: 0
    m_StartTime: 0
    m_StopTime: 1.0833334
    m_OrientationOffsetY: 0
    m_Level: 0
    m_CycleOffset: 0
    m_HasAdditiveReferencePose: 0
    m_LoopTime: 1
    m_LoopBlend: 0
    m_LoopBlendOrientation: 0
    m_LoopBlendPositionY: 0
    m_LoopBlendPositionXZ: 0
    m_KeepOriginalOrientation: 0
    m_KeepOriginalPositionY: 1
    m_KeepOriginalPositionXZ: 0
    m_HeightFromFeet: 0
    m_Mirror: 0
  m_EditorCurves: []
  m_EulerEditorCurves: []
  m_HasGenericRootTransform: 0
  m_HasMotionFloatCurves: 0
  m_GenerateMotionCurves: 0
  m_Events: []
