%YAML 1.1
%TAG !u! tag:unity3d.com,2011:
--- !u!74 &7400000
AnimationClip:
  m_ObjectHideFlags: 0
  m_CorrespondingSourceObject: {fileID: 0}
  m_PrefabInternal: {fileID: 0}
  m_Name: acro_idle
  serializedVersion: 6
  m_Legacy: 0
  m_Compressed: 0
  m_UseHighQualityCurve: 1
  m_RotationCurves: []
  m_CompressedRotationCurves: []
  m_EulerCurves: []
  m_PositionCurves: []
  m_ScaleCurves: []
  m_FloatCurves: []
  m_PPtrCurves:
  - curve:
    - time: 0
      value: {fileID: 21300000, guid: d02cc4d734233194da8bca6b24fae5f8, type: 3}
    - time: 0.083333336
      value: {fileID: 21300000, guid: fd4606436928d944f9a62b9a1299ca02, type: 3}
    - time: 0.16666667
      value: {fileID: 21300000, guid: c482867ff0866e84c8fa06897af873c2, type: 3}
    - time: 0.25
      value: {fileID: 21300000, guid: 5854927c257928846bc24a1c980e62ac, type: 3}
    - time: 0.33333334
      value: {fileID: 21300000, guid: a7e4c27b8ec82fc4c9d7316cb5ec9609, type: 3}
    - time: 0.41666666
      value: {fileID: 21300000, guid: 44fd959a17aa4be448d8e51b53aa7ce6, type: 3}
    - time: 0.5
      value: {fileID: 21300000, guid: adeed8fdabd79bb469e04d95ab545e47, type: 3}
    - time: 0.5833333
      value: {fileID: 21300000, guid: a0ec3cbae8de10d49b2ba0b726682540, type: 3}
    attribute: m_Sprite
    path: 
    classID: 212
    script: {fileID: 0}
  m_SampleRate: 12
  m_WrapMode: 0
  m_Bounds:
    m_Center: {x: 0, y: 0, z: 0}
    m_Extent: {x: 0, y: 0, z: 0}
  m_ClipBindingConstant:
    genericBindings:
    - serializedVersion: 2
      path: 0
      attribute: 0
      script: {fileID: 0}
      typeID: 212
      customType: 23
      isPPtrCurve: 1
    pptrCurveMapping:
    - {fileID: 21300000, guid: d02cc4d734233194da8bca6b24fae5f8, type: 3}
    - {fileID: 21300000, guid: fd4606436928d944f9a62b9a1299ca02, type: 3}
    - {fileID: 21300000, guid: c482867ff0866e84c8fa06897af873c2, type: 3}
    - {fileID: 21300000, guid: 5854927c257928846bc24a1c980e62ac, type: 3}
    - {fileID: 21300000, guid: a7e4c27b8ec82fc4c9d7316cb5ec9609, type: 3}
    - {fileID: 21300000, guid: 44fd959a17aa4be448d8e51b53aa7ce6, type: 3}
    - {fileID: 21300000, guid: adeed8fdabd79bb469e04d95ab545e47, type: 3}
    - {fileID: 21300000, guid: a0ec3cbae8de10d49b2ba0b726682540, type: 3}
  m_AnimationClipSettings:
    serializedVersion: 2
    m_AdditiveReferencePoseClip: {fileID: 0}
    m_AdditiveReferencePoseTime: 0
    m_StartTime: 0
    m_StopTime: 0.6666666
    m_OrientationOffsetY: 0
    m_Level: 0
    m_CycleOffset: 0
    m_HasAdditiveReferencePose: 0
    m_LoopTime: 1
    m_LoopBlend: 0
    m_LoopBlendOrientation: 0
    m_LoopBlendPositionY: 0
    m_LoopBlendPositionXZ: 0
    m_KeepOriginalOrientation: 0
    m_KeepOriginalPositionY: 1
    m_KeepOriginalPositionXZ: 0
    m_HeightFromFeet: 0
    m_Mirror: 0
  m_EditorCurves: []
  m_EulerEditorCurves: []
  m_HasGenericRootTransform: 0
  m_HasMotionFloatCurves: 0
  m_GenerateMotionCurves: 0
  m_Events: []
