%YAML 1.1
%TAG !u! tag:unity3d.com,2011:
--- !u!74 &7400000
AnimationClip:
  m_ObjectHideFlags: 0
  m_CorrespondingSourceObject: {fileID: 0}
  m_PrefabInternal: {fileID: 0}
  m_Name: acro_jump
  serializedVersion: 6
  m_Legacy: 0
  m_Compressed: 0
  m_UseHighQualityCurve: 1
  m_RotationCurves: []
  m_CompressedRotationCurves: []
  m_EulerCurves: []
  m_PositionCurves: []
  m_ScaleCurves: []
  m_FloatCurves: []
  m_PPtrCurves:
  - curve:
    - time: 0
      value: {fileID: 21300000, guid: ef0062dab8ce2e04389ca3584dc3f54a, type: 3}
    - time: 0.14285715
      value: {fileID: 21300000, guid: 285b1210f03619b4d9e20912084b60bb, type: 3}
    - time: 0.2857143
      value: {fileID: 21300000, guid: 800af521a81bd5745a859b87622883f6, type: 3}
    - time: 0.42857143
      value: {fileID: 21300000, guid: a27008b1a8cac5d4a8b83cf95243092c, type: 3}
    - time: 0.5714286
      value: {fileID: 21300000, guid: e0e268456e3569644ba9a3d5996eba4e, type: 3}
    - time: 0.71428573
      value: {fileID: 21300000, guid: e0e1ddf193624b4419b5bdcaf35853d5, type: 3}
    - time: 0.85714287
      value: {fileID: 21300000, guid: f1233c3c6d516d742ae02511e9521d5e, type: 3}
    attribute: m_Sprite
    path: 
    classID: 212
    script: {fileID: 0}
  m_SampleRate: 7
  m_WrapMode: 0
  m_Bounds:
    m_Center: {x: 0, y: 0, z: 0}
    m_Extent: {x: 0, y: 0, z: 0}
  m_ClipBindingConstant:
    genericBindings:
    - serializedVersion: 2
      path: 0
      attribute: 0
      script: {fileID: 0}
      typeID: 212
      customType: 23
      isPPtrCurve: 1
    pptrCurveMapping:
    - {fileID: 21300000, guid: ef0062dab8ce2e04389ca3584dc3f54a, type: 3}
    - {fileID: 21300000, guid: 285b1210f03619b4d9e20912084b60bb, type: 3}
    - {fileID: 21300000, guid: 800af521a81bd5745a859b87622883f6, type: 3}
    - {fileID: 21300000, guid: a27008b1a8cac5d4a8b83cf95243092c, type: 3}
    - {fileID: 21300000, guid: e0e268456e3569644ba9a3d5996eba4e, type: 3}
    - {fileID: 21300000, guid: e0e1ddf193624b4419b5bdcaf35853d5, type: 3}
    - {fileID: 21300000, guid: f1233c3c6d516d742ae02511e9521d5e, type: 3}
  m_AnimationClipSettings:
    serializedVersion: 2
    m_AdditiveReferencePoseClip: {fileID: 0}
    m_AdditiveReferencePoseTime: 0
    m_StartTime: 0
    m_StopTime: 1
    m_OrientationOffsetY: 0
    m_Level: 0
    m_CycleOffset: 0
    m_HasAdditiveReferencePose: 0
    m_LoopTime: 1
    m_LoopBlend: 0
    m_LoopBlendOrientation: 0
    m_LoopBlendPositionY: 0
    m_LoopBlendPositionXZ: 0
    m_KeepOriginalOrientation: 0
    m_KeepOriginalPositionY: 1
    m_KeepOriginalPositionXZ: 0
    m_HeightFromFeet: 0
    m_Mirror: 0
  m_EditorCurves: []
  m_EulerEditorCurves: []
  m_HasGenericRootTransform: 0
  m_HasMotionFloatCurves: 0
  m_GenerateMotionCurves: 0
  m_Events: []
