%YAML 1.1
%TAG !u! tag:unity3d.com,2011:
--- !u!74 &7400000
AnimationClip:
  m_ObjectHideFlags: 0
  m_CorrespondingSourceObject: {fileID: 0}
  m_PrefabInternal: {fileID: 0}
  m_Name: acro_jump2
  serializedVersion: 6
  m_Legacy: 0
  m_Compressed: 0
  m_UseHighQualityCurve: 1
  m_RotationCurves: []
  m_CompressedRotationCurves: []
  m_EulerCurves: []
  m_PositionCurves: []
  m_ScaleCurves: []
  m_FloatCurves: []
  m_PPtrCurves:
  - curve:
    - time: 0
      value: {fileID: 21300000, guid: a2a4aa4eb2fec2b459c5f21674e7a0ef, type: 3}
    - time: 0.14285715
      value: {fileID: 21300000, guid: cf581d1ca3a14644f8bef890851f62c4, type: 3}
    - time: 0.2857143
      value: {fileID: 21300000, guid: 4b766dbc643c1a0449fb0b8f7c8857fa, type: 3}
    - time: 0.42857143
      value: {fileID: 21300000, guid: db0d7970b36671647a74cbe1ab8a1a2f, type: 3}
    - time: 0.5714286
      value: {fileID: 21300000, guid: a1a83c668fdd21e47af54d6f0fc1b781, type: 3}
    - time: 0.71428573
      value: {fileID: 21300000, guid: 2d39eae5c4f04a7489a7d959ce04dcf7, type: 3}
    - time: 0.85714287
      value: {fileID: 21300000, guid: b82235dff02772e41a57a51512536b8e, type: 3}
    attribute: m_Sprite
    path: 
    classID: 212
    script: {fileID: 0}
  m_SampleRate: 7
  m_WrapMode: 0
  m_Bounds:
    m_Center: {x: 0, y: 0, z: 0}
    m_Extent: {x: 0, y: 0, z: 0}
  m_ClipBindingConstant:
    genericBindings:
    - serializedVersion: 2
      path: 0
      attribute: 0
      script: {fileID: 0}
      typeID: 212
      customType: 23
      isPPtrCurve: 1
    pptrCurveMapping:
    - {fileID: 21300000, guid: a2a4aa4eb2fec2b459c5f21674e7a0ef, type: 3}
    - {fileID: 21300000, guid: cf581d1ca3a14644f8bef890851f62c4, type: 3}
    - {fileID: 21300000, guid: 4b766dbc643c1a0449fb0b8f7c8857fa, type: 3}
    - {fileID: 21300000, guid: db0d7970b36671647a74cbe1ab8a1a2f, type: 3}
    - {fileID: 21300000, guid: a1a83c668fdd21e47af54d6f0fc1b781, type: 3}
    - {fileID: 21300000, guid: 2d39eae5c4f04a7489a7d959ce04dcf7, type: 3}
    - {fileID: 21300000, guid: b82235dff02772e41a57a51512536b8e, type: 3}
  m_AnimationClipSettings:
    serializedVersion: 2
    m_AdditiveReferencePoseClip: {fileID: 0}
    m_AdditiveReferencePoseTime: 0
    m_StartTime: 0
    m_StopTime: 1
    m_OrientationOffsetY: 0
    m_Level: 0
    m_CycleOffset: 0
    m_HasAdditiveReferencePose: 0
    m_LoopTime: 1
    m_LoopBlend: 0
    m_LoopBlendOrientation: 0
    m_LoopBlendPositionY: 0
    m_LoopBlendPositionXZ: 0
    m_KeepOriginalOrientation: 0
    m_KeepOriginalPositionY: 1
    m_KeepOriginalPositionXZ: 0
    m_HeightFromFeet: 0
    m_Mirror: 0
  m_EditorCurves: []
  m_EulerEditorCurves: []
  m_HasGenericRootTransform: 0
  m_HasMotionFloatCurves: 0
  m_GenerateMotionCurves: 0
  m_Events: []
